<svg xmlns="http://www.w3.org/2000/svg" xmlns:xlink="http://www.w3.org/1999/xlink" width="512" height="340" viewBox="0 0 512 340">
  <defs>
    <clipPath id="clip-path">
      <rect id="Rectangle_1" data-name="Rectangle 1" width="512" height="512"/>
    </clipPath>
    <clipPath id="clip-vision">
      <rect width="512" height="340"/>
    </clipPath>
  </defs>
  <g id="vision" clip-path="url(#clip-vision)">
    <g id="vision-2" data-name="vision" transform="translate(0 -86)" clip-path="url(#clip-path)">
      <g id="Group_114" data-name="Group 114" transform="translate(7160.312 -12.983)">
        <g id="Group_71" data-name="Group 71" transform="translate(-7028.62 131.36)">
          <g id="Group_55" data-name="Group 55" transform="translate(128.713 12.576)">
            <path id="Path_151" data-name="Path 151" d="M1579.67,325.27c.732.3,2.922,6.193,3.181,8.42l2.168,7.328-5.727.134s-1.415-5.882-1.466-5.884a2.949,2.949,0,0,1-1.961-.893c-.732-.669-3.374-5.345-2.032-6.7a17.566,17.566,0,0,1,3.187-2.184,7.636,7.636,0,0,1,2.65-.221Z" transform="translate(-1525.797 -325.196)" fill="#cfedfc"/>
            <path id="Path_152" data-name="Path 152" d="M1339.11,459.46c21.448-6.528,57.485,17.855,63.183,21.041,6.406,3.579,3.5,13.421-4.981,11.731-2.709-.543-49.657-16.569-51.937-18" transform="translate(-1339.11 -431.273)" fill="#1d4277"/>
            <path id="Path_153" data-name="Path 153" d="M1594.9,421.036c-2.626-9.065-4.7-37.407-6.2-43.834-.527-2.241-2.148-2.121-.681-4.039a9.2,9.2,0,0,1,4.906-2.7,5.125,5.125,0,0,1,2.658-.1c1.086.417.543,2.609,1.064,3.563,2.05,3.748,12.459,42.2,10.439,44.851-1.017,1.338-3.789,2.6-5.255,3.276C1599.61,423.078,1595.5,423.132,1594.9,421.036Z" transform="translate(-1536.915 -361.067)" fill="#1d4277"/>
          </g>
          <path id="Path_154" data-name="Path 154" d="M1463.1,324.525l-.142-1.592,23.628-3.824,29.268-3.449.594,6.693-29.417,1.769Z" transform="translate(-1309.058 -305.023)" fill="#1d4277"/>
          <path id="Path_155" data-name="Path 155" d="M1581.56,328.748s-.089,1.861,2.849,1.887,2.127-2.8,2.127-2.8a10.73,10.73,0,0,0-4.976.913Z" transform="translate(-1403.537 -314.704)" fill="#cfedfc"/>
          <path id="Path_156" data-name="Path 156" d="M1347.65,425.589s.563,6.555-4.726,6.026c-5.63-.561-5.52-7.049-5.52-7.049l1.529-15.306,10.246,1.023Z" transform="translate(-1209.034 -379.587)" fill="#cfedfc"/>
          <path id="Path_157" data-name="Path 157" d="M1094.03,888.308s9.262,5.914,18.243,6.059c11.784.191,9.685-21.1,9.685-21.1s-7.462-3.209-10.592-.468S1094.03,888.308,1094.03,888.308Z" transform="translate(-1015.161 -747.971)" fill="#5bcbf5"/>
          <path id="Path_158" data-name="Path 158" d="M1204.37,542.819l-32.008-3.2s-13.9-84.217,8.54-93.684c4.033-1.7,38.062,4.432,39.766,16.978C1226.36,504.861,1204.37,542.819,1204.37,542.819Z" transform="translate(-1074.172 -408.584)" fill="#e6e7e8"/>
          <path id="Path_159" data-name="Path 159" d="M1149.54,447.043s.763,44.713-17.716,67.09-37.8,31.68-37.8,31.68,15.432-15.182,14.279-34.287-.378-67.048,13.437-69.354C1134.69,440.019,1149.54,447.043,1149.54,447.043Z" transform="translate(-1015.161 -405.479)" fill="#1d4277"/>
          <path id="Path_160" data-name="Path 160" d="M1345.64,576.544s26.846-48.347,16.825-83.289c-.826-2.88-2.339-6.819-8.3-7.415.1.108,24.269,13.079-8.674,89.543Z" transform="translate(-1215.479 -440.593)" fill="#1d4277"/>
          <path id="Path_161" data-name="Path 161" d="M1378.85,480.92l-2.5,3.626,3.7,5.5,1.371-5.448Z" transform="translate(-1240.063 -436.673)" fill="#ee2c3c"/>
          <path id="Path_162" data-name="Path 162" d="M1334.53,513.494a167.313,167.313,0,0,1-14.411,54.019q1.251,4.179,2.286,8.517,3.707-2.718,7.324-5.7a173.639,173.639,0,0,0,5.652-57.2Z" transform="translate(-1195.269 -462.332)" fill="#ee2c3c"/>
          <path id="Path_163" data-name="Path 163" d="M1170.52,912.029c2,3.874,12.064,8.825,16.406,9.256,4.267.425,16.526-3.258,18.023-6.486,1.023-2.2,2.111-17.956,2.111-17.956l-35.16-3.513S1167.46,906.112,1170.52,912.029Z" transform="translate(-1075.235 -765.208)" fill="#1d4277"/>
          <g id="Group_58" data-name="Group 58" transform="translate(116.366 131.754)">
            <g id="Group_56" data-name="Group 56" transform="translate(71.888 133.448)">
              <path id="Path_164" data-name="Path 164" d="M1632.28,1568.11s-1.761,7.954,2.028,8.153,21.249,2.249,20.976-1.241c-.059-.805-8.294-4.714-14.013-6.862a13.269,13.269,0,0,0-8.991-.05Z" transform="translate(-1631.87 -1567.35)" fill="#1d4277"/>
            </g>
            <g id="Group_57" data-name="Group 57" transform="translate(69.986 109.243)">
              <path id="Path_165" data-name="Path 165" d="M1632.15,1451.73c1.057,4.773.915,21.7-.275,22.4-1.015.59-6.754.624-6.953-.136-.738-2.849-2.4-20.993-2.4-20.993s-.039-3.7,3.132-4.4C1630.3,1447.56,1631.72,1449.76,1632.15,1451.73Z" transform="translate(-1622.52 -1448.334)" fill="#cfedfc"/>
            </g>
            <path id="Path_166" data-name="Path 166" d="M1292.95,911.19s53.486,37.367,63.769,56.283c3.211,5.9-8.8,13.738-9.107,13.885L1278.4,931.314Z" transform="translate(-1278.4 -911.19)" fill="#1d4277"/>
            <path id="Path_167" data-name="Path 167" d="M1601.88,1184.68c4.814,56.913,2.068,66.191,1.747,73.183-.047.954-10.177-.311-10.177-.311l-8.107-67.265s1.987-8.013,6.533-8.438C1597.41,1181.33,1601.63,1181.71,1601.88,1184.68Z" transform="translate(-1522.915 -1126.649)" fill="#1d4277"/>
          </g>
          <g id="Group_63" data-name="Group 63" transform="translate(0 135.497)">
            <g id="Group_61" data-name="Group 61" transform="translate(0 110.07)">
              <g id="Group_60" data-name="Group 60">
                <g id="Group_59" data-name="Group 59">
                  <path id="Path_168" data-name="Path 168" d="M715.549,1472.44c-2.807-3.022-7.411-.934-7.411-.934s-3.915,13-.521,16.065c3.76,3.4,7.566,6.238,8.64,4.753.325-.452-2.119-4.906-2.154-6.787s1.83-4.69,2.613-6.415C718.8,1474.51,717.554,1474.59,715.549,1472.44Z" transform="translate(-706.232 -1470.802)" fill="#1d4277"/>
                </g>
              </g>
            </g>
            <g id="Group_62" data-name="Group 62" transform="translate(8.478 97.188)">
              <path id="Path_169" data-name="Path 169" d="M769.377,1415.83c-3.765,3.49-18.324,12.536-19.292,11.9-.824-.547-2.638-5.43-2.048-6.012,2.213-2.174,17.248-13.425,17.248-13.425s3.165-2.04,4.753.289C772.369,1411.99,770.937,1414.38,769.377,1415.83Z" transform="translate(-747.921 -1407.465)" fill="#cfedfc"/>
            </g>
            <path id="Path_170" data-name="Path 170" d="M1080.5,930.049S1046.08,993,1028.67,1007c-5.432,4.375-15.823-7.6-16-7.934l32.616-68.439s3-2.1,8.277-.331C1062.51,933.288,1080.5,930.049,1080.5,930.049Z" transform="translate(-950.347 -929.594)" fill="#1d4277"/>
            <path id="Path_171" data-name="Path 171" d="M825.821,1253.98c-47.779,34.354-57.149,36.348-63.433,39.632-.856.449-4.3-10.557-4.3-10.557l55.382-43.071s7.924-2.111,10.34,2.31C826.752,1247.68,828.308,1252.2,825.821,1253.98Z" transform="translate(-747.543 -1176.459)" fill="#1d4277"/>
          </g>
          <path id="Path_172" data-name="Path 172" d="M1340.69,457.589l-9.1-6.278,1.727-4.23,9.876,6.882Z" transform="translate(-1204.398 -409.715)" fill="#fff"/>
          <path id="Path_173" data-name="Path 173" d="M1391.21,472.176l-2.577-3.675.317-3.171,4.1,3.224Z" transform="translate(-1249.846 -424.254)" fill="#fff"/>
          <g id="Group_64" data-name="Group 64" transform="translate(125.456)">
            <path id="Path_174" data-name="Path 174" d="M1362.69,297.255c1.6,9.364,3.543,17.81-.818,19.742-3.457,1.531-12.1.179-12.1.179s-6.913-1.082-9.388-10.244-1.448-17.671,5.568-19.563c6.081-1.643,12.341-3.224,15.117,3.329a57.149,57.149,0,0,1,1.621,6.557Z" transform="translate(-1335.902 -281.335)" fill="#cfedfc"/>
            <path id="Path_175" data-name="Path 175" d="M1351.3,271.381c.041-.073.079-.142.116-.216a7.581,7.581,0,0,0,.986-4.137c-.055.677-.852,1.161-1.385,1.474,1.025-1.617.932-3.315.714-5.143-.441,2.215-3.4,2.351-5.048,1.737-6.622-2.473-11.635-.9-17.631,2.4-4.031,2.225-6.3,7.218-5.912,10.269.622,4.857,2.121,15.5,4.336,17.922,1.617,1.765,3-3.964,3.215-4.879.478-1.975,1.332-6.4,4.253-5.928,1.1.179.673,2.872,1.056,3.85.266.675,3.006-.01,3.006-.01l-2.788-11.015a11.2,11.2,0,0,1,5.182-3.455c2.778-.763,3.931.846,6.821.018C1349.82,273.814,1350.49,272.827,1351.3,271.381Z" transform="translate(-1323.095 -263.36)" fill="#1d4277"/>
            <path id="Path_176" data-name="Path 176" d="M1368.21,368.013c.244,1.8-.63,3.4-1.954,3.579s-2.593-1.133-2.837-2.929.633-3.4,1.954-3.577S1367.97,366.219,1368.21,368.013Z" transform="translate(-1355.189 -344.384)" fill="#cfedfc"/>
            <path id="Path_177" data-name="Path 177" d="M1455.97,353.94s1.843,4.651,3.254,6.185c.517.557-2.941.73-2.941.73Z" transform="translate(-1428.946 -335.518)" fill="#cfedfc"/>
          </g>
          <g id="Group_69" data-name="Group 69" transform="translate(3.814 123.285)">
            <rect id="Rectangle_30" data-name="Rectangle 30" width="36.659" height="58.367" transform="matrix(0.223, -0.975, 0.975, 0.223, 0, 37.332)" fill="#1d4277"/>
            <path id="Path_178" data-name="Path 178" d="M847.569,869.55,844.38,883.5l2.109.484,2.548-11.139,16.718,3.826-2.548,11.137,2.107.482,3.186-13.95Z" transform="translate(-820.098 -869.55)" fill="#1d4277"/>
            <g id="Group_66" data-name="Group 66" transform="translate(5.61 12.864)">
              <g id="Group_65" data-name="Group 65">
                <path id="Path_179" data-name="Path 179" d="M752.57,932.8c.793,1.836,1.6,3.667,2.367,5.518l-.11-.1q6.309,1.321,12.579,2.8,6.278,1.452,12.51,3.1-6.33-1.22-12.613-2.648-6.29-1.4-12.546-2.947l-.081-.02-.028-.073C753.927,936.567,753.257,934.679,752.57,932.8Z" transform="translate(-752.57 -932.8)" fill="#5bcbf5"/>
              </g>
            </g>
            <g id="Group_68" data-name="Group 68" transform="translate(32.954 24.186)">
              <g id="Group_67" data-name="Group 67">
                <path id="Path_180" data-name="Path 180" d="M916.571,990.162c-1.438,1.4-2.859,2.8-4.32,4.173l-.059.055-.083-.016q-6.309-1.321-12.579-2.8-6.278-1.452-12.51-3.1,6.33,1.22,12.613,2.65,6.29,1.4,12.546,2.947l-.14.039C913.53,992.767,915.058,991.472,916.571,990.162Z" transform="translate(-887.02 -988.47)" fill="#5bcbf5"/>
              </g>
            </g>
            <path id="Path_181" data-name="Path 181" d="M865.229,978.727l-13.559-3.1.822-3.584,13.557,3.1Z" transform="translate(-825.905 -951.196)" fill="#fff"/>
            <path id="Path_182" data-name="Path 182" d="M874.65,985.448l.968-4.238,3.584.822-.97,4.238Z" transform="translate(-844.212 -958.501)" fill="#fff"/>
          </g>
          <g id="Group_70" data-name="Group 70" transform="translate(36.442 36.259)">
            <path id="Path_183" data-name="Path 183" d="M893.9,839.144s.144-1.414.12-1.822a3.453,3.453,0,0,0-1.049-1.961c-.031-.035,2.65-4.521,2.65-4.521L892,827.46l-3.09,5.84a27.042,27.042,0,0,0-3.189,5.223c-1.1,2.857,1,3.016,2.843,3.441a3.33,3.33,0,0,0,2.219-.573,16.721,16.721,0,0,0,.881-2.884C891.88,839.3,893.9,839.144,893.9,839.144Z" transform="translate(-885.418 -748.994)" fill="#cfedfc"/>
            <path id="Path_184" data-name="Path 184" d="M1041.7,441.759c-25.357-2.351-51.436,32.052-55.03,37.5-2.847,4.32.3,13.87,8,9.921,2.461-1.261,43.547-26.777,47.769-29.177" transform="translate(-965.25 -441.644)" fill="#1d4277"/>
            <path id="Path_185" data-name="Path 185" d="M918.781,623.8c-4.749,3.047-13.449,35.217-16.439,41.1-1.043,2.052-2.589,1.552-1.621,3.76.708,1.615,2.55,2.951,4.124,3.785a5.13,5.13,0,0,0,2.559.728c1.153-.146,1.147-2.406,1.881-3.207,2.88-3.152,22.125-38.03,20.793-41.086-.669-1.542-3.063-3.425-4.326-4.432C923.843,622.94,920.62,622.626,918.781,623.8Z" transform="translate(-897.365 -586.186)" fill="#1d4277"/>
          </g>
        </g>
        <g id="Group_82" data-name="Group 82" transform="translate(-6823.476 185.782)">
          <g id="Group_74" data-name="Group 74" transform="translate(0 176.084)">
            <g id="Group_73" data-name="Group 73">
              <g id="Group_72" data-name="Group 72">
                <path id="Path_186" data-name="Path 186" d="M1719.66,1397.39c-1.946-1.529-4.478.14-4.478.14s-1.108,8.072,1.19,9.571c2.546,1.666,5.064,2.99,5.562,2.011.152-.3-1.712-2.711-1.908-3.823s.647-2.949.95-4.045C1721.79,1398.32,1721.05,1398.48,1719.66,1397.39Z" transform="translate(-1714.916 -1396.748)" fill="#1d4277"/>
              </g>
            </g>
          </g>
          <g id="Group_75" data-name="Group 75" transform="translate(80.895 194.304)">
            <path id="Path_187" data-name="Path 187" d="M2113.12,1486.64s-1.469,4.983.934,5.276,13.417,2.359,13.4.128c0-.519-5.072-3.362-8.613-4.979A8.474,8.474,0,0,0,2113.12,1486.64Z" transform="translate(-2112.675 -1486.333)" fill="#1d4277"/>
          </g>
          <g id="Group_76" data-name="Group 76" transform="translate(58.694 35.622)">
            <path id="Path_188" data-name="Path 188" d="M2314.5,707.252a17.372,17.372,0,0,0-1.688,1.568,2.059,2.059,0,0,0-.3,1.3h0c0,.026-2.986.986-2.986.986l.293,2.959,3.706-1.407a10.978,10.978,0,0,0,3.417-1.706,5.6,5.6,0,0,0,.612-.7,15.851,15.851,0,0,0,2.068-3c.3-.539.169-.942-.077-1.112-.291-.2-.716.411-.879.626a5.437,5.437,0,0,1-1.09,1.31c-.319.3-.616.594-.822.761a2.722,2.722,0,0,1-1.377.317,7.971,7.971,0,0,0-1.027.067c.218-.445.858-1.178.708-1.784a.337.337,0,0,0-.558-.185Z" transform="translate(-2247.284 -706.103)" fill="#cfedfc"/>
            <path id="Path_189" data-name="Path 189" d="M2003.51,757.576c9.931,9.077,35.874,5.951,39.652,4.918,3-.818,5.363-6.366.332-7.637-1.609-.409-31.174-3.85-32.776-3.665" transform="translate(-2003.51 -742.016)" fill="#1d4277"/>
            <path id="Path_190" data-name="Path 190" d="M2185.95,736.977c3.348.51,20.019-10.531,23.7-12,1.283-.513,1.78.327,2.221-1.053a5.51,5.51,0,0,0-.358-3.339,3.083,3.083,0,0,0-.864-1.342c-.578-.391-1.47.628-2.117.7-2.548.279-25.04,8.359-25.652,10.265a9.686,9.686,0,0,0,.191,3.712A3.958,3.958,0,0,0,2185.95,736.977Z" transform="translate(-2146.298 -716.499)" fill="#1d4277"/>
          </g>
          <path id="Path_191" data-name="Path 191" d="M2014.17,722.137s.726,3.88-2.461,3.88c-3.394,0-3.716-3.88-3.716-3.88V712.91h6.177Z" transform="translate(-1948.385 -675.903)" fill="#cfedfc"/>
          <path id="Path_192" data-name="Path 192" d="M1890.65,1008.85s5.884,2.977,11.253,2.53c7.047-.588,4.525-13.175,4.525-13.175s-4.647-1.47-6.351.352S1890.65,1008.85,1890.65,1008.85Z" transform="translate(-1854.91 -902.729)" fill="#5bcbf5"/>
          <path id="Path_193" data-name="Path 193" d="M1942.7,800.121h-19.3s-12.451-48.593.384-55.587c2.306-1.255,22.117-.478,23.881,6.911C1953.57,776.147,1942.7,800.121,1942.7,800.121Z" transform="translate(-1876.683 -700.706)" fill="#e6e7e8"/>
          <path id="Path_194" data-name="Path 194" d="M1917.9,741.733s3.124,26.644-6.573,41.109-20.677,21.17-20.677,21.17,8.306-9.986,6.48-21.322-3.354-39.15,4.757-41.353C1909.49,739.276,1917.9,741.733,1917.9,741.733Z" transform="translate(-1854.91 -697.893)" fill="#1d4277"/>
          <path id="Path_195" data-name="Path 195" d="M2038.68,810.712s13.144-30.466,5.078-50.731c-.663-1.67-1.8-3.931-5.4-3.931.065.057,15.27,6.36.161,53.976Z" transform="translate(-1972.579 -710.27)" fill="#1d4277"/>
          <path id="Path_196" data-name="Path 196" d="M2033.36,753.09l-1.273,2.31,2.538,3.063.492-3.333Z" transform="translate(-1967.584 -707.912)" fill="#ee2c3c"/>
          <path id="Path_197" data-name="Path 197" d="M2020.71,772.188a100.449,100.449,0,0,1-5.379,33.11q1,2.419,1.871,4.95,2.053-1.846,4.033-3.842a104.179,104.179,0,0,0-.039-34.487C2021.04,772.011,2020.87,772.1,2020.71,772.188Z" transform="translate(-1954.233 -722.912)" fill="#ee2c3c"/>
          <g id="Group_77" data-name="Group 77" transform="translate(80.758 178.853)">
            <path id="Path_198" data-name="Path 198" d="M2118.18,1412.72c.462,3.083-.368,13.846-1.155,14.236-.671.332-4.322.1-4.417-.39-.344-1.843-.61-13.458-.61-13.458s.138-2.357,2.184-2.664C2117.18,1409.99,2117.99,1411.45,2118.18,1412.72Z" transform="translate(-2112 -1410.363)" fill="#cfedfc"/>
          </g>
          <path id="Path_199" data-name="Path 199" d="M1936.62,1022.9c1.426,2.192,7.73,4.547,10.346,4.547,2.575,0,9.673-2.933,10.374-4.948.48-1.375.189-10.848.189-10.848h-21.2S1934.44,1019.55,1936.62,1022.9Z" transform="translate(-1890.695 -913.886)" fill="#1d4277"/>
          <path id="Path_200" data-name="Path 200" d="M2007.33,1011.88s21.131,34.9,22.05,48.587c.287,4.275-8.861,6.612-9.077,6.612l-22.2-42.431Z" transform="translate(-1940.507 -914.07)" fill="#1d4277"/>
          <path id="Path_201" data-name="Path 201" d="M2109.93,1242.26c.57,36.409-1.58,42.189-2.091,46.622-.071.6-6.459-.643-6.459-.643l-2.213-43.138s1.615-5.007,4.523-5.08C2107.24,1239.93,2109.9,1240.36,2109.93,1242.26Z" transform="translate(-2021.021 -1095.8)" fill="#1d4277"/>
          <g id="Group_78" data-name="Group 78" transform="translate(4.257 166.317)">
            <path id="Path_202" data-name="Path 202" d="M1747.98,1353.57c-1.906,2.418-9.693,9.14-10.325,8.851-.539-.248-2.068-2.975-1.773-3.374,1.108-1.495,8.973-9.565,8.973-9.565s1.684-1.5,2.843-.271a3.022,3.022,0,0,1,.282,4.359Z" transform="translate(-1735.846 -1348.723)" fill="#cfedfc"/>
          </g>
          <path id="Path_203" data-name="Path 203" d="M1903.99,1017.55s-11.381,41.084-20.4,51.007c-2.813,3.1-10.088-3.028-10.222-3.209l12.953-43.6s1.582-1.523,4.875-.97C1896.78,1021.71,1903.99,1017.55,1903.99,1017.55Z" transform="translate(-1841.144 -918.586)" fill="#1d4277"/>
          <path id="Path_204" data-name="Path 204" d="M1776.93,1237.68c-25.115,24.812-30.486,26.87-33.9,29.4-.466.346-3.533-5.857-3.533-5.857l28.811-30.69s4.5-1.991,6.343.407C1776.89,1233.85,1778.24,1236.39,1776.93,1237.68Z" transform="translate(-1734.492 -1087.635)" fill="#1d4277"/>
          <path id="Path_205" data-name="Path 205" d="M2009.32,741.595l-5.812-3.2.779-2.632,6.307,3.525Z" transform="translate(-1944.817 -694.106)" fill="#fff"/>
          <path id="Path_206" data-name="Path 206" d="M2040.11,747.642l-1.757-2.04V743.69l2.64,1.678Z" transform="translate(-1972.571 -700.424)" fill="#fff"/>
          <g id="Group_79" data-name="Group 79" transform="translate(55.981 17.846)">
            <path id="Path_207" data-name="Path 207" d="M2014.62,641.419c1.515,5.5,3.177,10.421.689,11.837-1.971,1.119-7.212.828-7.212.828s-4.194-.234-6.217-5.554-1.918-10.464,2.156-12.014c3.535-1.344,7.177-2.66,9.225,1.086a34.394,34.394,0,0,1,1.359,3.817Z" transform="translate(-1998.474 -631.804)" fill="#cfedfc"/>
            <path id="Path_208" data-name="Path 208" d="M2006.69,623.518c.02-.047.039-.091.057-.14a4.549,4.549,0,0,0,.344-2.526c.006.407-.441.744-.74.962a4.411,4.411,0,0,0,.118-3.114c-.132,1.35-1.887,1.6-2.91,1.336-4.1-1.082-7,.159-10.382,2.489-2.274,1.568-3.333,4.684-2.916,6.482.663,2.864,2.19,9.132,3.659,10.439,1.072.958,1.552-2.544,1.629-3.1.167-1.208.413-3.9,2.184-3.793.669.041.572,1.674.86,2.235.2.388,1.8-.185,1.8-.185l-2.323-6.411a6.757,6.757,0,0,1,2.886-2.373c1.615-.618,2.4.273,4.074-.4a2.974,2.974,0,0,0,1.66-1.906Z" transform="translate(-1990.172 -618.7)" fill="#1d4277"/>
            <path id="Path_209" data-name="Path 209" d="M2020.09,686.345a1.77,1.77,0,0,1-.952,2.253c-.779.185-1.617-.523-1.869-1.58a1.772,1.772,0,0,1,.954-2.253C2019,684.58,2019.83,685.287,2020.09,686.345Z" transform="translate(-2011.698 -671.305)" fill="#cfedfc"/>
            <path id="Path_210" data-name="Path 210" d="M2070.98,673.25a17.536,17.536,0,0,0,2.313,3.5c.339.3-1.713.612-1.713.612Z" transform="translate(-2054.545 -662.156)" fill="#cfedfc"/>
          </g>
          <g id="Group_80" data-name="Group 80" transform="translate(82.538)">
            <path id="Path_211" data-name="Path 211" d="M2175.22,558.188a27.236,27.236,0,1,0-54.473,0c0,9.886,8.926,22.064,13.148,33.039,1.277,3.317,2.815,14.21,2.815,14.21h22.546s1.538-10.893,2.815-14.21C2166.3,580.253,2175.22,568.075,2175.22,558.188Z" transform="translate(-2120.75 -530.95)" fill="#fff"/>
            <path id="Path_212" data-name="Path 212" d="M2234.81,802.086h-7.62v-23.97l-2.522-4.476h12.664l-2.522,4.476Z" transform="translate(-2203.535 -724.282)" fill="none" stroke="#1d4277" stroke-linecap="round" stroke-linejoin="round" stroke-miterlimit="10" stroke-width="5.11"/>
            <path id="Path_213" data-name="Path 213" d="M2217.78,908.942a1.063,1.063,0,0,1-1.078,1.037h-23.136a1.061,1.061,0,0,1-1.078-1.037V889.287a1.061,1.061,0,0,1,1.078-1.037H2216.7a1.061,1.061,0,0,1,1.078,1.037Z" transform="translate(-2177.9 -815.583)" fill="#1d4277"/>
            <path id="Path_214" data-name="Path 214" d="M2204.12,914.484a.974.974,0,0,1-.974.974h-12.087a.976.976,0,0,1-.976-.974h0a.976.976,0,0,1,.976-.974h12.087a.974.974,0,0,1,.974.974Z" transform="translate(-2175.98 -835.706)" fill="#5bcbf5"/>
            <path id="Path_215" data-name="Path 215" d="M2204.12,961.214a.973.973,0,0,1-.974.974h-12.087a.975.975,0,0,1-.977-.974h0a.972.972,0,0,1,.976-.974h12.087a.973.973,0,0,1,.974.974Z" transform="translate(-2175.98 -872.932)" fill="#5bcbf5"/>
            <path id="Path_216" data-name="Path 216" d="M2265.6,936.184a.976.976,0,0,1-.974.976h-12.087a.975.975,0,0,1-.974-.976h0a.976.976,0,0,1,.974-.974h12.087A.976.976,0,0,1,2265.6,936.184Z" transform="translate(-2224.956 -852.993)" fill="#5bcbf5"/>
          </g>
          <g id="Group_81" data-name="Group 81" transform="translate(44.025 46.836)">
            <path id="Path_217" data-name="Path 217" d="M2158.68,971.838a17.766,17.766,0,0,0-2.276-.366,2.08,2.08,0,0,0-1.212.561h0c-.02.018-2.617-1.743-2.617-1.743l-2.15,2.052,3.39,2.052a10.913,10.913,0,0,0,3.449,1.641,6.022,6.022,0,0,0,.923.055,15.94,15.94,0,0,0,3.64-.222c.606-.1.846-.447.828-.748-.021-.352-.763-.309-1.033-.3a5.458,5.458,0,0,1-1.7-.053c-.431-.065-.846-.118-1.106-.179a2.733,2.733,0,0,1-1.1-.889,7.5,7.5,0,0,0-.685-.767c.486-.1,1.456-.049,1.841-.543a.332.332,0,0,0-.192-.546Z" transform="translate(-2105.873 -927.774)" fill="#cfedfc"/>
            <path id="Path_218" data-name="Path 218" d="M1931.43,761.24c-1.029,13.415,17.417,31.922,20.557,34.265,2.487,1.857,8.316.3,6.219-4.446-.671-1.517-14.527-27.011-15.821-29.626" transform="translate(-1931.386 -761.24)" fill="#1d4277"/>
            <path id="Path_219" data-name="Path 219" d="M2031.34,903.787c1.66,2.951,20.627,9.278,24.049,11.273,1.194.693.84,1.6,2.2,1.1a5.518,5.518,0,0,0,2.41-2.341,3.109,3.109,0,0,0,.525-1.507c-.049-.7-1.4-.773-1.857-1.239-1.79-1.834-22.01-14.574-23.889-13.881a9.711,9.711,0,0,0-2.8,2.438,3.96,3.96,0,0,0-.638,4.157Z" transform="translate(-2010.738 -869.521)" fill="#1d4277"/>
          </g>
        </g>
        <g id="Group_103" data-name="Group 103" transform="translate(-6760.378 167.274)">
          <g id="Group_95" data-name="Group 95">
            <g id="Group_85" data-name="Group 85" transform="translate(57.609)">
              <g id="Group_83" data-name="Group 83" transform="translate(5.665)">
                <path id="Path_220" data-name="Path 220" d="M2336.75,442.733a.667.667,0,0,1-.4-.911l.73-1.47a.825.825,0,0,1,1.019-.35.653.653,0,0,1,.4.9l-.726,1.47a.818.818,0,0,1-1.023.361Z" transform="translate(-2336.279 -439.946)" fill="#fff"/>
              </g>
              <g id="Group_84" data-name="Group 84" transform="translate(0 4.33)">
                <path id="Path_221" data-name="Path 221" d="M2308.9,471.135a.651.651,0,0,1-.4-.9l1.42-2.87a.818.818,0,0,1,1.023-.348.659.659,0,0,1,.4.907l-1.414,2.862A.805.805,0,0,1,2308.9,471.135Zm2.827-5.715a.664.664,0,0,1-.4-.911l1.42-2.857a.817.817,0,0,1,1.023-.36.665.665,0,0,1,.4.9l-1.42,2.87a.825.825,0,0,1-1.03.358Z" transform="translate(-2308.425 -461.235)" fill="#fff"/>
              </g>
            </g>
            <g id="Group_88" data-name="Group 88" transform="translate(76.709 23.058)">
              <g id="Group_86" data-name="Group 86" transform="translate(13.159)">
                <path id="Path_222" data-name="Path 222" d="M2467.1,554.848a.671.671,0,0,1,.445-.893l1.684-.586a.82.82,0,0,1,1,.384.669.669,0,0,1-.435.9l-1.69.586a.819.819,0,0,1-1-.391Z" transform="translate(-2467.044 -553.323)" fill="#fff"/>
              </g>
              <g id="Group_87" data-name="Group 87" transform="translate(0 1.724)">
                <path id="Path_223" data-name="Path 223" d="M2402.4,566.157a.664.664,0,0,1,.439-.891l3.293-1.139a.806.806,0,0,1,1,.386.666.666,0,0,1-.439.893l-3.287,1.137A.815.815,0,0,1,2402.4,566.157Zm6.577-2.282a.655.655,0,0,1,.441-.883l3.293-1.143a.81.81,0,0,1,1.009.393.672.672,0,0,1-.439.891l-3.293,1.137a.812.812,0,0,1-1.018-.4Z" transform="translate(-2402.34 -561.801)" fill="#fff"/>
              </g>
            </g>
            <g id="Group_91" data-name="Group 91" transform="translate(0 25.3)">
              <g id="Group_89" data-name="Group 89">
                <path id="Path_224" data-name="Path 224" d="M2028.31,565.946a.809.809,0,0,1-1.023.348l-1.662-.637a.653.653,0,0,1-.4-.9.825.825,0,0,1,1.023-.356l1.661.649a.65.65,0,0,1,.4.9Z" transform="translate(-2025.164 -564.345)" fill="#fff"/>
              </g>
              <g id="Group_90" data-name="Group 90" transform="translate(4.896 1.889)">
                <path id="Path_225" data-name="Path 225" d="M2060.44,578.364a.832.832,0,0,1-1.025.35l-3.236-1.259a.657.657,0,0,1-.4-.9.821.821,0,0,1,1.019-.36l3.242,1.259a.659.659,0,0,1,.4.91Zm-6.471-2.51a.833.833,0,0,1-1.023.348l-3.238-1.251a.666.666,0,0,1-.4-.909.81.81,0,0,1,1.023-.35l3.238,1.251a.664.664,0,0,1,.4.911Z" transform="translate(-2049.239 -573.631)" fill="#fff"/>
              </g>
            </g>
            <g id="Group_94" data-name="Group 94" transform="translate(26.075 0.926)">
              <g id="Group_92" data-name="Group 92">
                <path id="Path_226" data-name="Path 226" d="M2155.1,447.319a.83.83,0,0,1-1.009-.393l-.663-1.5a.661.661,0,0,1,.441-.883.807.807,0,0,1,1.009.384l.661,1.495a.671.671,0,0,1-.439.9Z" transform="translate(-2153.376 -444.498)" fill="#fff"/>
              </g>
              <g id="Group_93" data-name="Group 93" transform="translate(1.95 4.399)">
                <path id="Path_227" data-name="Path 227" d="M2167.88,476.19a.811.811,0,0,1-1-.393l-1.292-2.906a.667.667,0,0,1,.439-.891.815.815,0,0,1,1.009.384l1.285,2.912a.667.667,0,0,1-.441.894Zm-2.575-5.825a.807.807,0,0,1-1-.384l-1.29-2.912a.671.671,0,0,1,.443-.893.807.807,0,0,1,1,.4l1.29,2.91a.661.661,0,0,1-.438.879Z" transform="translate(-2162.962 -466.129)" fill="#fff"/>
              </g>
            </g>
          </g>
          <g id="Group_102" data-name="Group 102" transform="translate(15.853 2.753)">
            <g id="Group_97" data-name="Group 97" transform="translate(30.748)">
              <g id="Group_96" data-name="Group 96">
                <path id="Path_228" data-name="Path 228" d="M2254.78,455.3a.453.453,0,0,1-.48-.419V453.9a.479.479,0,0,1,.95,0v.978a.445.445,0,0,1-.47.422Z" transform="translate(-2254.3 -453.48)" fill="#fff"/>
              </g>
              <path id="Path_229" data-name="Path 229" d="M2254.78,467.11a.447.447,0,0,0-.48.407v5.965a.479.479,0,0,0,.95,0v-5.965a.441.441,0,0,0-.47-.407Z" transform="translate(-2254.3 -464.338)" fill="#fff"/>
            </g>
            <g id="Group_99" data-name="Group 99" transform="translate(54.526 11.268)">
              <g id="Group_98" data-name="Group 98" transform="translate(6.194)">
                <path id="Path_230" data-name="Path 230" d="M2401.81,510.291a.384.384,0,0,1,0-.594l.781-.691a.52.52,0,0,1,.673,0,.392.392,0,0,1,0,.6l-.781.691a.544.544,0,0,1-.673-.006Z" transform="translate(-2401.67 -508.883)" fill="#fff"/>
              </g>
              <path id="Path_231" data-name="Path 231" d="M2376.79,518.616a.538.538,0,0,0-.667,0l-1.182,1.051-.488.429-3.1,2.746a.392.392,0,0,0,0,.6.546.546,0,0,0,.673,0l3.1-2.748.488-.429,1.176-1.049a.384.384,0,0,0,0-.6Z" transform="translate(-2371.215 -516.544)" fill="#fff"/>
            </g>
            <g id="Group_101" data-name="Group 101" transform="translate(0 11.266)">
              <g id="Group_100" data-name="Group 100">
                <path id="Path_232" data-name="Path 232" d="M2104.71,510.283a.533.533,0,0,1-.667,0l-.787-.691a.392.392,0,0,1,0-.6.52.52,0,0,1,.673,0l.781.691a.387.387,0,0,1,0,.6Z" transform="translate(-2103.115 -508.872)" fill="#fff"/>
              </g>
              <path id="Path_233" data-name="Path 233" d="M2114.14,518.616a.392.392,0,0,0,0,.6l1.176,1.049.49.429,3.1,2.748a.547.547,0,0,0,.673,0,.392.392,0,0,0,0-.6l-3.1-2.746-.49-.429-1.176-1.051A.55.55,0,0,0,2114.14,518.616Z" transform="translate(-2111.79 -516.542)" fill="#fff"/>
            </g>
          </g>
        </g>
        <g id="Group_113" data-name="Group 113" transform="translate(-7142.19 177.412)">
          <g id="Group_106" data-name="Group 106" transform="translate(27.216 194.554)">
            <g id="Group_105" data-name="Group 105">
              <g id="Group_104" data-name="Group 104">
                <path id="Path_234" data-name="Path 234" d="M285.962,1446.57c-2.455-.8-4.332,1.747-4.332,1.747s1.82,8.294,4.607,8.936c3.089.712,6.03,1.1,6.166-.035.041-.344-2.652-2.034-3.242-3.053s-.427-3.116-.525-4.3C288.37,1446.71,287.715,1447.13,285.962,1446.57Z" transform="translate(-281.63 -1446.413)" fill="#1d4277"/>
              </g>
            </g>
          </g>
          <g id="Group_107" data-name="Group 107" transform="translate(81.245 198.005)">
            <path id="Path_235" data-name="Path 235" d="M547.748,1463.7s-1.529,5.194.974,5.5,13.984,2.461,13.962.134c0-.539-5.286-3.5-8.977-5.19a8.835,8.835,0,0,0-5.959-.444Z" transform="translate(-547.286 -1463.38)" fill="#1d4277"/>
          </g>
          <g id="Group_108" data-name="Group 108" transform="translate(58.105 32.611)">
            <path id="Path_236" data-name="Path 236" d="M757.638,651.344a18.362,18.362,0,0,0-1.759,1.633,2.173,2.173,0,0,0-.317,1.357h0c0,.028-3.112,1.029-3.112,1.029l.3,3.083,3.862-1.466a11.323,11.323,0,0,0,3.559-1.78,5.864,5.864,0,0,0,.639-.724,16.532,16.532,0,0,0,2.154-3.13c.309-.563.177-.982-.079-1.159-.3-.209-.746.429-.915.651a5.645,5.645,0,0,1-1.137,1.367c-.333.311-.643.618-.856.791a2.853,2.853,0,0,1-1.436.334,8.264,8.264,0,0,0-1.07.067c.228-.464.9-1.228.736-1.859a.349.349,0,0,0-.574-.194Z" transform="translate(-687.585 -650.145)" fill="#cfedfc"/>
            <path id="Path_237" data-name="Path 237" d="M433.51,703.8c10.352,9.459,37.391,6.2,41.33,5.127,3.122-.852,5.589-6.634.344-7.962-1.676-.423-32.492-4.011-34.163-3.817" transform="translate(-433.51 -687.585)" fill="#1d4277"/>
            <path id="Path_238" data-name="Path 238" d="M623.664,682.341c3.488.531,20.865-10.976,24.7-12.506,1.338-.533,1.857.34,2.314-1.1a5.728,5.728,0,0,0-.372-3.478,3.214,3.214,0,0,0-.9-1.4c-.6-.407-1.531.655-2.207.728-2.656.291-26.1,8.715-26.736,10.7a10.125,10.125,0,0,0,.2,3.866,4.128,4.128,0,0,0,3,3.19Z" transform="translate(-582.333 -660.995)" fill="#1d4277"/>
          </g>
          <path id="Path_239" data-name="Path 239" d="M444.6,666.858s.759,4.045-2.565,4.045c-3.539,0-3.874-4.045-3.874-4.045V657.24H444.6Z" transform="translate(-379.109 -623.186)" fill="#cfedfc"/>
          <path id="Path_240" data-name="Path 240" d="M315.87,965.693s6.132,3.1,11.729,2.634c7.344-.612,4.714-13.732,4.714-13.732s-4.842-1.531-6.622.368S315.87,965.693,315.87,965.693Z" transform="translate(-281.69 -859.601)" fill="#5bcbf5"/>
          <g id="Group_109" data-name="Group 109">
            <path id="Path_241" data-name="Path 241" d="M152.374,493.567a18.424,18.424,0,0,1,.622,2.319,2.157,2.157,0,0,1-.451,1.316h0c-.014.022,2.091,2.524,2.091,2.524l-1.9,2.451-2.493-3.3a11.309,11.309,0,0,1-2.072-3.4,5.5,5.5,0,0,1-.157-.952,16.394,16.394,0,0,1-.165-3.8c.037-.643.372-.925.683-.94.368-.018.4.757.429,1.039a5.673,5.673,0,0,0,.238,1.761c.116.439.216.864.3,1.127a2.858,2.858,0,0,0,1.041,1.043,8.038,8.038,0,0,1,.87.626c.053-.517-.108-1.515.362-1.967a.35.35,0,0,1,.6.148Z" transform="translate(-147.81 -489.798)" fill="#cfedfc"/>
            <path id="Path_242" data-name="Path 242" d="M270.766,656.63c-13.8,2.52-34.979-14.6-37.745-17.6-2.194-2.38-1.216-8.591,3.935-6.929,1.645.531,29.575,12.138,32.424,13.193" transform="translate(-214.815 -602.936)" fill="#1d4277"/>
            <path id="Path_243" data-name="Path 243" d="M175.615,552.388c-3.238-1.4-11.853-20.38-14.289-23.714-.85-1.159-1.755-.7-1.379-2.16a5.738,5.738,0,0,1,2.162-2.75,3.2,3.2,0,0,1,1.507-.706c.726-.026.95,1.369,1.483,1.79,2.1,1.656,17.488,21.241,16.974,23.262a10.111,10.111,0,0,1-2.223,3.171,4.122,4.122,0,0,1-4.235,1.107Z" transform="translate(-157.408 -516.294)" fill="#1d4277"/>
          </g>
          <path id="Path_244" data-name="Path 244" d="M367.48,745.091H347.362s-13.887-51.54-.51-58.827c2.406-1.308,23.962.393,25.8,8.092C378.8,720.1,367.48,745.091,367.48,745.091Z" transform="translate(-301.738 -645.989)" fill="#e6e7e8"/>
          <path id="Path_245" data-name="Path 245" d="M344.274,684.4s3.256,27.773-6.852,42.85-21.552,22.064-21.552,22.064,8.66-10.407,6.754-22.225-4.4-41.7,4.049-43.993C334.6,680.95,344.274,684.4,344.274,684.4Z" transform="translate(-281.69 -643.223)" fill="#1d4277"/>
          <path id="Path_246" data-name="Path 246" d="M470.154,759.184s13.7-31.753,5.292-52.876c-.694-1.741-1.879-4.1-5.625-4.1.067.061,15.916,6.63.171,56.26Z" transform="translate(-404.33 -659.01)" fill="#1d4277"/>
          <path id="Path_247" data-name="Path 247" d="M464.618,699.12l-1.328,2.41,2.646,3.193.513-3.478Z" transform="translate(-399.128 -656.549)" fill="#ee2c3c"/>
          <path id="Path_248" data-name="Path 248" d="M451.427,719.047a104.689,104.689,0,0,1-5.607,34.511q1.04,2.526,1.95,5.16,2.139-1.925,4.2-4a108.606,108.606,0,0,0-.041-35.943C451.765,718.862,451.6,718.955,451.427,719.047Z" transform="translate(-385.211 -672.202)" fill="#ee2c3c"/>
          <g id="Group_110" data-name="Group 110" transform="translate(81.101 181.901)">
            <path id="Path_249" data-name="Path 249" d="M553.025,1386.66c.482,3.213-.384,14.43-1.2,14.838-.7.346-4.507.1-4.6-.407-.358-1.922-.637-14.027-.637-14.027s.142-2.457,2.278-2.778C551.984,1383.81,552.824,1385.33,553.025,1386.66Z" transform="translate(-546.58 -1384.197)" fill="#cfedfc"/>
          </g>
          <path id="Path_250" data-name="Path 250" d="M363.786,980.345c1.487,2.286,8.058,4.741,10.785,4.741,2.681,0,10.081-3.057,10.814-5.158.5-1.432.2-11.308.2-11.308h-22.1S361.512,976.853,363.786,980.345Z" transform="translate(-318.988 -871.238)" fill="#1d4277"/>
          <path id="Path_251" data-name="Path 251" d="M437.48,968.87s22.026,36.37,22.982,50.643c.3,4.456-9.235,6.89-9.461,6.893l-23.14-44.227Z" transform="translate(-370.904 -871.438)" fill="#1d4277"/>
          <path id="Path_252" data-name="Path 252" d="M544.428,1208.99c.594,37.948-1.647,43.974-2.18,48.6-.073.63-6.732-.669-6.732-.669l-2.306-44.961s1.684-5.219,4.716-5.3C541.62,1206.56,544.4,1207.01,544.428,1208.99Z" transform="translate(-454.828 -1060.857)" fill="#1d4277"/>
          <g id="Group_111" data-name="Group 111" transform="translate(31.064 180.732)">
            <path id="Path_253" data-name="Path 253" d="M310.424,1382.79c-.995,3.053-6.2,12.428-6.917,12.375-.618-.049-3.1-2.164-2.951-2.662.547-1.861,5.337-12.583,5.337-12.583s1.106-2.079,2.685-1.289a3.145,3.145,0,0,1,1.846,4.159Z" transform="translate(-300.55 -1378.451)" fill="#cfedfc"/>
          </g>
          <path id="Path_254" data-name="Path 254" d="M383.022,970.35s3.649,44.283-1.6,57.234c-1.637,4.045-10.958.667-11.155.539l-3.02-47.318s1-2.058,4.419-2.7C377.47,977.013,383.022,970.35,383.022,970.35Z" transform="translate(-322.621 -872.617)" fill="#1d4277"/>
          <path id="Path_255" data-name="Path 255" d="M326.73,1227.77c-15.642,33.311-20.155,37.253-22.585,40.96-.332.506-5.564-4.46-5.564-4.46l17.141-40.387s3.685-3.565,6.351-1.885C325.322,1224.04,327.545,1226.03,326.73,1227.77Z" transform="translate(-267.917 -1072.726)" fill="#1d4277"/>
          <path id="Path_256" data-name="Path 256" d="M439.567,687.159l-6.057-3.339.811-2.74,6.573,3.669Z" transform="translate(-375.405 -642.178)" fill="#fff"/>
          <path id="Path_257" data-name="Path 257" d="M471.65,693.446l-1.83-2.125V689.33l2.752,1.749Z" transform="translate(-404.33 -648.75)" fill="#fff"/>
          <g id="Group_112" data-name="Group 112" transform="translate(55.271 14.086)">
            <path id="Path_258" data-name="Path 258" d="M445.087,582.729c1.578,5.725,3.311,10.862.718,12.335-2.054,1.169-7.517.864-7.517.864s-4.371-.242-6.48-5.788-2-10.907,2.247-12.522c3.683-1.4,7.48-2.774,9.616,1.133A36.3,36.3,0,0,1,445.087,582.729Z" transform="translate(-428.251 -572.708)" fill="#cfedfc"/>
            <path id="Path_259" data-name="Path 259" d="M436.8,564.079c.022-.047.041-.1.059-.142a4.728,4.728,0,0,0,.356-2.634c.008.425-.46.775-.773,1a4.6,4.6,0,0,0,.124-3.248c-.136,1.407-1.967,1.674-3.034,1.4-4.275-1.127-7.3.165-10.822,2.593-2.367,1.633-3.474,4.883-3.041,6.756.691,2.986,2.286,9.516,3.813,10.883,1.117,1,1.617-2.652,1.7-3.236.173-1.257.431-4.068,2.278-3.954.7.045.6,1.747.9,2.331.207.4,1.871-.193,1.871-.193l-2.418-6.681a7.042,7.042,0,0,1,3.008-2.473c1.682-.647,2.5.281,4.244-.413A3.1,3.1,0,0,0,436.8,564.079Z" transform="translate(-419.577 -559.06)" fill="#1d4277"/>
            <path id="Path_260" data-name="Path 260" d="M450.776,629.559a1.849,1.849,0,0,1-.992,2.349c-.813.193-1.684-.545-1.948-1.647a1.85,1.85,0,0,1,.995-2.349C449.641,627.72,450.514,628.454,450.776,629.559Z" transform="translate(-442.028 -613.885)" fill="#cfedfc"/>
            <path id="Path_261" data-name="Path 261" d="M503.83,615.92a18.193,18.193,0,0,0,2.41,3.647c.356.315-1.786.641-1.786.641Z" transform="translate(-486.695 -604.356)" fill="#cfedfc"/>
          </g>
        </g>
      </g>
    </g>
  </g>
</svg>
